^C:\USERS\ECE8349\DOWNLOADS\YPOLOGISTIKI GEOMETRIA\GEOLAB_2017_06\VS2015\DEBUG\SCENEMESH3D.OBJ
/OUT:"C:\USERS\ECE8349\DOWNLOADS\YPOLOGISTIKI GEOMETRIA\GEOLAB_2017_06\VS2015\DEBUG\GEOLAB_06-3D.EXE" /INCREMENTAL:NO /NOLOGO /LIBPATH:C:\VVRFRAMEWORK/LIB KERNEL32.LIB USER32.LIB GDI32.LIB WINSPOOL.LIB COMDLG32.LIB ADVAPI32.LIB SHELL32.LIB OLE32.LIB OLEAUT32.LIB UUID.LIB ODBC32.LIB ODBCCP32.LIB VVRSCENE_D.LIB GEOLIB_D.LIB MATHGEOLIB_D.LIB /MANIFEST /MANIFESTUAC:"level='asInvoker' uiAccess='false'" /manifest:embed /DEBUG /PDB:"C:\USERS\ECE8349\DOWNLOADS\YPOLOGISTIKI GEOMETRIA\GEOLAB_2017_06\VS2015\DEBUG\GEOLAB_06-3D.PDB" /SUBSYSTEM:CONSOLE /TLBID:1 /DYNAMICBASE /NXCOMPAT /IMPLIB:"C:\USERS\ECE8349\DOWNLOADS\YPOLOGISTIKI GEOMETRIA\GEOLAB_2017_06\VS2015\DEBUG\GEOLAB_06-3D.LIB" /MACHINE:X86 DEBUG\SCENEMESH3D.OBJ
^E:\YPOLOGISTIKI GEOMETRIA\GEOLAB_2017_06\VS2015\DEBUG\SCENEMESH3D.OBJ
/OUT:"E:\YPOLOGISTIKI GEOMETRIA\GEOLAB_2017_06\VS2015\DEBUG\GEOLAB_06-3D.EXE" /INCREMENTAL:NO /NOLOGO /LIBPATH:C:\VVRFRAMEWORK/LIB KERNEL32.LIB USER32.LIB GDI32.LIB WINSPOOL.LIB COMDLG32.LIB ADVAPI32.LIB SHELL32.LIB OLE32.LIB OLEAUT32.LIB UUID.LIB ODBC32.LIB ODBCCP32.LIB VVRSCENE_D.LIB GEOLIB_D.LIB MATHGEOLIB_D.LIB /MANIFEST /MANIFESTUAC:"level='asInvoker' uiAccess='false'" /manifest:embed /DEBUG /PDB:"E:\YPOLOGISTIKI GEOMETRIA\GEOLAB_2017_06\VS2015\DEBUG\GEOLAB_06-3D.PDB" /SUBSYSTEM:CONSOLE /TLBID:1 /DYNAMICBASE /NXCOMPAT /IMPLIB:"E:\YPOLOGISTIKI GEOMETRIA\GEOLAB_2017_06\VS2015\DEBUG\GEOLAB_06-3D.LIB" /MACHINE:X86 DEBUG\SCENEMESH3D.OBJ
^D:\VISUAL STUDIO\ΥΠΟΛΟΓΙΣΤΙΚΗ ΓΕΩΜΕΤΡΙΑ\LAB 5\GEOLAB_2017_06\VS2015\DEBUG\SCENEMESH3D.OBJ
/OUT:"D:\VISUAL STUDIO\ΥΠΟΛΟΓΙΣΤΙΚΗ ΓΕΩΜΕΤΡΙΑ\LAB 5\GEOLAB_2017_06\VS2015\DEBUG\GEOLAB_06-3D.EXE" /INCREMENTAL:NO /NOLOGO /LIBPATH:C:\VVRFRAMEWORK/LIB KERNEL32.LIB USER32.LIB GDI32.LIB WINSPOOL.LIB COMDLG32.LIB ADVAPI32.LIB SHELL32.LIB OLE32.LIB OLEAUT32.LIB UUID.LIB ODBC32.LIB ODBCCP32.LIB VVRSCENE_D.LIB GEOLIB_D.LIB MATHGEOLIB_D.LIB /MANIFEST /MANIFESTUAC:"level='asInvoker' uiAccess='false'" /manifest:embed /DEBUG /PDB:"D:\VISUAL STUDIO\ΥΠΟΛΟΓΙΣΤΙΚΗ ΓΕΩΜΕΤΡΙΑ\LAB 5\GEOLAB_2017_06\VS2015\DEBUG\GEOLAB_06-3D.PDB" /SUBSYSTEM:CONSOLE /TLBID:1 /DYNAMICBASE /NXCOMPAT /IMPLIB:"D:\VISUAL STUDIO\ΥΠΟΛΟΓΙΣΤΙΚΗ ΓΕΩΜΕΤΡΙΑ\LAB 5\GEOLAB_2017_06\VS2015\DEBUG\GEOLAB_06-3D.LIB" /MACHINE:X86 DEBUG\SCENEMESH3D.OBJ
^D:\VISUAL STUDIO\ΥΠΟΛΟΓΙΣΤΙΚΗ ΓΕΩΜΕΤΡΙΑ\BLEND SHAPES PROJECT\GEOLAB_2017_06\VS2015\DEBUG\SCENEMESH3D.OBJ
/OUT:"D:\VISUAL STUDIO\ΥΠΟΛΟΓΙΣΤΙΚΗ ΓΕΩΜΕΤΡΙΑ\BLEND SHAPES PROJECT\GEOLAB_2017_06\VS2015\DEBUG\GEOLAB_06-3D.EXE" /INCREMENTAL:NO /NOLOGO /LIBPATH:C:\VVRFRAMEWORK/LIB KERNEL32.LIB USER32.LIB GDI32.LIB WINSPOOL.LIB COMDLG32.LIB ADVAPI32.LIB SHELL32.LIB OLE32.LIB OLEAUT32.LIB UUID.LIB ODBC32.LIB ODBCCP32.LIB VVRSCENE_D.LIB GEOLIB_D.LIB MATHGEOLIB_D.LIB /MANIFEST /MANIFESTUAC:"level='asInvoker' uiAccess='false'" /manifest:embed /DEBUG /PDB:"D:\VISUAL STUDIO\ΥΠΟΛΟΓΙΣΤΙΚΗ ΓΕΩΜΕΤΡΙΑ\BLEND SHAPES PROJECT\GEOLAB_2017_06\VS2015\DEBUG\GEOLAB_06-3D.PDB" /SUBSYSTEM:CONSOLE /TLBID:1 /DYNAMICBASE /NXCOMPAT /IMPLIB:"D:\VISUAL STUDIO\ΥΠΟΛΟΓΙΣΤΙΚΗ ΓΕΩΜΕΤΡΙΑ\BLEND SHAPES PROJECT\GEOLAB_2017_06\VS2015\DEBUG\GEOLAB_06-3D.LIB" /MACHINE:X86 DEBUG\SCENEMESH3D.OBJ
^D:\VISUAL STUDIO\ΥΠΟΛΟΓΙΣΤΙΚΗ ΓΕΩΜΕΤΡΙΑ\BLEND SHAPES PROJECT\BLEND_SHAPES_8349_WORKING PROJECT\VS2015\DEBUG\BLEND_SHAPES_8349.OBJ
/OUT:"D:\VISUAL STUDIO\ΥΠΟΛΟΓΙΣΤΙΚΗ ΓΕΩΜΕΤΡΙΑ\BLEND SHAPES PROJECT\BLEND_SHAPES_8349_WORKING PROJECT\VS2015\DEBUG\GEOLAB_06-3D.EXE" /INCREMENTAL:NO /NOLOGO /LIBPATH:C:\VVRFRAMEWORK/LIB KERNEL32.LIB USER32.LIB GDI32.LIB WINSPOOL.LIB COMDLG32.LIB ADVAPI32.LIB SHELL32.LIB OLE32.LIB OLEAUT32.LIB UUID.LIB ODBC32.LIB ODBCCP32.LIB VVRSCENE_D.LIB GEOLIB_D.LIB MATHGEOLIB_D.LIB /MANIFEST /MANIFESTUAC:"level='asInvoker' uiAccess='false'" /manifest:embed /DEBUG /PDB:"D:\VISUAL STUDIO\ΥΠΟΛΟΓΙΣΤΙΚΗ ΓΕΩΜΕΤΡΙΑ\BLEND SHAPES PROJECT\BLEND_SHAPES_8349_WORKING PROJECT\VS2015\DEBUG\GEOLAB_06-3D.PDB" /SUBSYSTEM:CONSOLE /TLBID:1 /DYNAMICBASE /NXCOMPAT /IMPLIB:"D:\VISUAL STUDIO\ΥΠΟΛΟΓΙΣΤΙΚΗ ΓΕΩΜΕΤΡΙΑ\BLEND SHAPES PROJECT\BLEND_SHAPES_8349_WORKING PROJECT\VS2015\DEBUG\GEOLAB_06-3D.LIB" /MACHINE:X86 DEBUG\BLEND_SHAPES_8349.OBJ
^C:\USERS\ANTONI\DESKTOP\BLEND_SHAPES_8349_WORKING PROJECT\VS2015\DEBUG\BLEND_SHAPES_8349.OBJ
/OUT:"C:\USERS\ANTONI\DESKTOP\BLEND_SHAPES_8349_WORKING PROJECT\VS2015\DEBUG\GEOLAB_06-3D.EXE" /INCREMENTAL:NO /NOLOGO /LIBPATH:C:\VVRFRAMEWORK/LIB KERNEL32.LIB USER32.LIB GDI32.LIB WINSPOOL.LIB COMDLG32.LIB ADVAPI32.LIB SHELL32.LIB OLE32.LIB OLEAUT32.LIB UUID.LIB ODBC32.LIB ODBCCP32.LIB VVRSCENE_D.LIB GEOLIB_D.LIB MATHGEOLIB_D.LIB /MANIFEST /MANIFESTUAC:"level='asInvoker' uiAccess='false'" /manifest:embed /DEBUG /PDB:"C:\USERS\ANTONI\DESKTOP\BLEND_SHAPES_8349_WORKING PROJECT\VS2015\DEBUG\GEOLAB_06-3D.PDB" /SUBSYSTEM:CONSOLE /TLBID:1 /DYNAMICBASE /NXCOMPAT /IMPLIB:"C:\USERS\ANTONI\DESKTOP\BLEND_SHAPES_8349_WORKING PROJECT\VS2015\DEBUG\GEOLAB_06-3D.LIB" /MACHINE:X86 DEBUG\BLEND_SHAPES_8349.OBJ
^F:\ΥΠΟΛΟΓΙΣΤΙΚΗ ΓΕΩΜΕΤΡΙΑ\BLEND_SHAPES_8349_WORKING PROJECT\VS2015\DEBUG\BLEND_SHAPES_8349.OBJ
/OUT:"F:\ΥΠΟΛΟΓΙΣΤΙΚΗ ΓΕΩΜΕΤΡΙΑ\BLEND_SHAPES_8349_WORKING PROJECT\VS2015\DEBUG\GEOLAB_06-3D.EXE" /INCREMENTAL:NO /NOLOGO /LIBPATH:C:\VVRFRAMEWORK/LIB KERNEL32.LIB USER32.LIB GDI32.LIB WINSPOOL.LIB COMDLG32.LIB ADVAPI32.LIB SHELL32.LIB OLE32.LIB OLEAUT32.LIB UUID.LIB ODBC32.LIB ODBCCP32.LIB VVRSCENE_D.LIB GEOLIB_D.LIB MATHGEOLIB_D.LIB /MANIFEST /MANIFESTUAC:"level='asInvoker' uiAccess='false'" /manifest:embed /DEBUG /PDB:"F:\ΥΠΟΛΟΓΙΣΤΙΚΗ ΓΕΩΜΕΤΡΙΑ\BLEND_SHAPES_8349_WORKING PROJECT\VS2015\DEBUG\GEOLAB_06-3D.PDB" /SUBSYSTEM:CONSOLE /TLBID:1 /DYNAMICBASE /NXCOMPAT /IMPLIB:"F:\ΥΠΟΛΟΓΙΣΤΙΚΗ ΓΕΩΜΕΤΡΙΑ\BLEND_SHAPES_8349_WORKING PROJECT\VS2015\DEBUG\GEOLAB_06-3D.LIB" /MACHINE:X86 DEBUG\BLEND_SHAPES_8349.OBJ
^C:\USERS\NICK\DESKTOP\ΥΠΟΛΟΓΙΣΤΙΚΗ ΓΕΩΜΕΤΡΙΑ\BLEND_SHAPES_8349_WORKING PROJECT\VS2015\DEBUG\BLEND_SHAPES_8349.OBJ
/OUT:"C:\USERS\NICK\DESKTOP\ΥΠΟΛΟΓΙΣΤΙΚΗ ΓΕΩΜΕΤΡΙΑ\BLEND_SHAPES_8349_WORKING PROJECT\VS2015\DEBUG\GEOLAB_06-3D.EXE" /INCREMENTAL:NO /NOLOGO /LIBPATH:C:\VVRFRAMEWORK/LIB KERNEL32.LIB USER32.LIB GDI32.LIB WINSPOOL.LIB COMDLG32.LIB ADVAPI32.LIB SHELL32.LIB OLE32.LIB OLEAUT32.LIB UUID.LIB ODBC32.LIB ODBCCP32.LIB VVRSCENE_D.LIB GEOLIB_D.LIB MATHGEOLIB_D.LIB /MANIFEST /MANIFESTUAC:"level='asInvoker' uiAccess='false'" /manifest:embed /DEBUG /PDB:"C:\USERS\NICK\DESKTOP\ΥΠΟΛΟΓΙΣΤΙΚΗ ΓΕΩΜΕΤΡΙΑ\BLEND_SHAPES_8349_WORKING PROJECT\VS2015\DEBUG\GEOLAB_06-3D.PDB" /SUBSYSTEM:CONSOLE /TLBID:1 /DYNAMICBASE /NXCOMPAT /IMPLIB:"C:\USERS\NICK\DESKTOP\ΥΠΟΛΟΓΙΣΤΙΚΗ ΓΕΩΜΕΤΡΙΑ\BLEND_SHAPES_8349_WORKING PROJECT\VS2015\DEBUG\GEOLAB_06-3D.LIB" /MACHINE:X86 DEBUG\BLEND_SHAPES_8349.OBJ
